Timeseries anomaly detection using an Autoencoder • keras3
…
df_small_noise   <- get_data("artificialNoAnomaly/art_daily_small_noise.csv")
df_daily_jumpsup <- get_data("artificialWithAnomaly/art_daily_jumpsup.csv")

Quick look at the data

df_small_noise

## # A tibble: 4,032 × 2
##    timestamp           value
##    <dttm>              <dbl>
##  1 2014-04-01 00:00:00  18.3
##  2 2014-04-01 00:05:00  22.0
##  3 2014-04-01 00:10:00  18.6
##  4 2014-04-01 00:15:00  22.0
##  5 2014-04-01 00:20:00  21.9
##  6 2014-04-01 00:25:00  21.2
##  7 2014-04-01 00:30:00  20.6
##  8 2014-04-01 00:35:00  20.3
##  9 2014-04-01 00:40:00  21.5
## 10 2014-04-01 00:45:00  19.2
## # ℹ 4,022 more rows

df_daily_jumpsup

## # A tibble: 4,032 × 2
##    timestamp           value
##    <dttm>              <dbl>
##  1 2014-04-01 00:00:00  19.8
##  2 2014-04-01 00:05:00  20.5
##  3 2014-04-01 00:10:00  20.0
##  4 2014-04-01 00:15:00  21.5
##  5 2014-04-01 00:20:00  20.2
##  6 2014-04-01 00:25:00  19.9
##  7 2014-04-01 00:30:00  21.7
##  8 2014-04-01 00:35:00  20.9
##  9 2014-04-01 00:40:00  18.4
## 10 2014-04-01 00:45:00  18.7
## # ℹ 4,022 more rows
…
