Structured data classification with FeatureSpace • keras3
…
Here’s a preview of a few samples:

df

## # A tibble: 301 × 14
##      age   sex    cp trestbps  chol   fbs restecg thalach exang oldpeak
##    <int> <int> <int>    <int> <int> <int>   <int>   <int> <int>   <dbl>
##  1    63     1     1      145   233     1       2     150     0     2.3
##  2    67     1     4      160   286     0       2     108     1     1.5
##  3    67     1     4      120   229     0       2     129     1     2.6
##  4    37     1     3      130   250     0       0     187     0     3.5
##  5    41     0     2      130   204     0       2     172     0     1.4
##  6    56     1     2      120   236     0       0     178     0     0.8
##  7    62     0     4      140   268     0       2     160     0     3.6
##  8    57     0     4      120   354     0       0     163     1     0.6
##  9    63     1     4      130   254     0       2     147     0     1.4
## 10    53     1     4      140   203     1       2     155     1     3.1
## # ℹ 291 more rows
## # ℹ 4 more variables: slope <int>, ca <int>, thal <chr>, target <int>
…
